%YAML 1.1
%TAG !u! tag:unity3d.com,2011:
--- !u!1001 &6071784441987959957
PrefabInstance:
  m_ObjectHideFlags: 0
  serializedVersion: 2
  m_Modification:
    m_TransformParent: {fileID: 2632250448028369766}
    m_Modifications:
    - target: {fileID: 2159474516994922778, guid: 20470b0ddc2908445bf26fc4a341bbea,
        type: 3}
      propertyPath: m_LocalPosition.x
      value: 0.733
      objectReference: {fileID: 0}
    - target: {fileID: 2159474516994922778, guid: 20470b0ddc2908445bf26fc4a341bbea,
        type: 3}
      propertyPath: m_LocalPosition.y
      value: 0.284
      objectReference: {fileID: 0}
    - target: {fileID: 2159474516994922778, guid: 20470b0ddc2908445bf26fc4a341bbea,
        type: 3}
      propertyPath: m_LocalPosition.z
      value: 0.168
      objectReference: {fileID: 0}
    - target: {fileID: 2159474516994922778, guid: 20470b0ddc2908445bf26fc4a341bbea,
        type: 3}
      propertyPath: m_LocalRotation.x
      value: 0.7071068
      objectReference: {fileID: 0}
    - target: {fileID: 2159474516994922778, guid: 20470b0ddc2908445bf26fc4a341bbea,
        type: 3}
      propertyPath: m_LocalRotation.y
      value: 0
      objectReference: {fileID: 0}
    - target: {fileID: 2159474516994922778, guid: 20470b0ddc2908445bf26fc4a341bbea,
        type: 3}
      propertyPath: m_LocalRotation.z
      value: 0
      objectReference: {fileID: 0}
    - target: {fileID: 2159474516994922778, guid: 20470b0ddc2908445bf26fc4a341bbea,
        type: 3}
      propertyPath: m_LocalRotation.w
      value: 0.7071068
      objectReference: {fileID: 0}
    - target: {fileID: 2159474516994922778, guid: 20470b0ddc2908445bf26fc4a341bbea,
        type: 3}
      propertyPath: m_RootOrder
      value: 0
      objectReference: {fileID: 0}
    - target: {fileID: 2159474516994922778, guid: 20470b0ddc2908445bf26fc4a341bbea,
        type: 3}
      propertyPath: m_LocalEulerAnglesHint.x
      value: 90
      objectReference: {fileID: 0}
    - target: {fileID: 2159474516994922778, guid: 20470b0ddc2908445bf26fc4a341bbea,
        type: 3}
      propertyPath: m_LocalEulerAnglesHint.y
      value: 0
      objectReference: {fileID: 0}
    - target: {fileID: 2159474516994922778, guid: 20470b0ddc2908445bf26fc4a341bbea,
        type: 3}
      propertyPath: m_LocalEulerAnglesHint.z
      value: 0
      objectReference: {fileID: 0}
    - target: {fileID: 2159474516994922778, guid: 20470b0ddc2908445bf26fc4a341bbea,
        type: 3}
      propertyPath: m_LocalScale.x
      value: 100
      objectReference: {fileID: 0}
    - target: {fileID: 2159474516994922778, guid: 20470b0ddc2908445bf26fc4a341bbea,
        type: 3}
      propertyPath: m_LocalScale.y
      value: 100
      objectReference: {fileID: 0}
    - target: {fileID: 2159474516994922778, guid: 20470b0ddc2908445bf26fc4a341bbea,
        type: 3}
      propertyPath: m_LocalScale.z
      value: 100
      objectReference: {fileID: 0}
    - target: {fileID: 3147074379124009737, guid: 20470b0ddc2908445bf26fc4a341bbea,
        type: 3}
      propertyPath: m_Name
      value: ToasterInMilk Variant
      objectReference: {fileID: 0}
    - target: {fileID: 3147074379124009737, guid: 20470b0ddc2908445bf26fc4a341bbea,
        type: 3}
      propertyPath: m_Icon
      value: 
      objectReference: {fileID: 0}
    m_RemovedComponents: []
  m_SourcePrefab: {fileID: 100100000, guid: 20470b0ddc2908445bf26fc4a341bbea, type: 3}
--- !u!1001 &7060822986076563580
PrefabInstance:
  m_ObjectHideFlags: 0
  serializedVersion: 2
  m_Modification:
    m_TransformParent: {fileID: 0}
    m_Modifications:
    - target: {fileID: -4216859302048453862, guid: ec9a60b28ddfad845988ea7dcb8529b1,
        type: 3}
      propertyPath: m_LocalPosition.x
      value: 0
      objectReference: {fileID: 0}
    - target: {fileID: -4216859302048453862, guid: ec9a60b28ddfad845988ea7dcb8529b1,
        type: 3}
      propertyPath: m_LocalPosition.y
      value: 0
      objectReference: {fileID: 0}
    - target: {fileID: -4216859302048453862, guid: ec9a60b28ddfad845988ea7dcb8529b1,
        type: 3}
      propertyPath: m_LocalPosition.z
      value: 0
      objectReference: {fileID: 0}
    - target: {fileID: -4216859302048453862, guid: ec9a60b28ddfad845988ea7dcb8529b1,
        type: 3}
      propertyPath: m_LocalRotation.x
      value: 0
      objectReference: {fileID: 0}
    - target: {fileID: -4216859302048453862, guid: ec9a60b28ddfad845988ea7dcb8529b1,
        type: 3}
      propertyPath: m_LocalRotation.y
      value: 0
      objectReference: {fileID: 0}
    - target: {fileID: -4216859302048453862, guid: ec9a60b28ddfad845988ea7dcb8529b1,
        type: 3}
      propertyPath: m_LocalRotation.z
      value: 0
      objectReference: {fileID: 0}
    - target: {fileID: -4216859302048453862, guid: ec9a60b28ddfad845988ea7dcb8529b1,
        type: 3}
      propertyPath: m_LocalRotation.w
      value: 1
      objectReference: {fileID: 0}
    - target: {fileID: -4216859302048453862, guid: ec9a60b28ddfad845988ea7dcb8529b1,
        type: 3}
      propertyPath: m_RootOrder
      value: 0
      objectReference: {fileID: 0}
    - target: {fileID: -4216859302048453862, guid: ec9a60b28ddfad845988ea7dcb8529b1,
        type: 3}
      propertyPath: m_LocalEulerAnglesHint.x
      value: 0
      objectReference: {fileID: 0}
    - target: {fileID: -4216859302048453862, guid: ec9a60b28ddfad845988ea7dcb8529b1,
        type: 3}
      propertyPath: m_LocalEulerAnglesHint.y
      value: 0
      objectReference: {fileID: 0}
    - target: {fileID: -4216859302048453862, guid: ec9a60b28ddfad845988ea7dcb8529b1,
        type: 3}
      propertyPath: m_LocalEulerAnglesHint.z
      value: 0
      objectReference: {fileID: 0}
    - target: {fileID: -4216859302048453862, guid: ec9a60b28ddfad845988ea7dcb8529b1,
        type: 3}
      propertyPath: m_LocalScale.x
      value: 1
      objectReference: {fileID: 0}
    - target: {fileID: -4216859302048453862, guid: ec9a60b28ddfad845988ea7dcb8529b1,
        type: 3}
      propertyPath: m_LocalScale.y
      value: 1
      objectReference: {fileID: 0}
    - target: {fileID: -4216859302048453862, guid: ec9a60b28ddfad845988ea7dcb8529b1,
        type: 3}
      propertyPath: m_LocalScale.z
      value: 1
      objectReference: {fileID: 0}
    - target: {fileID: -1504981713932161579, guid: ec9a60b28ddfad845988ea7dcb8529b1,
        type: 3}
      propertyPath: m_Materials.Array.data[0]
      value: 
      objectReference: {fileID: 2100000, guid: 6b9a2c7a3adf24948acab5fdf0fde7ce, type: 2}
    - target: {fileID: -927199367670048503, guid: ec9a60b28ddfad845988ea7dcb8529b1,
        type: 3}
      propertyPath: m_Name
      value: ToasterBroken Variant (1)
      objectReference: {fileID: 0}
    - target: {fileID: -927199367670048503, guid: ec9a60b28ddfad845988ea7dcb8529b1,
        type: 3}
      propertyPath: m_Icon
      value: 
      objectReference: {fileID: 3443629218296621865, guid: 0000000000000000d000000000000000,
        type: 0}
    m_RemovedComponents:
    - {fileID: -5178661895559278292, guid: ec9a60b28ddfad845988ea7dcb8529b1, type: 3}
    - {fileID: -1504981713932161579, guid: ec9a60b28ddfad845988ea7dcb8529b1, type: 3}
  m_SourcePrefab: {fileID: 100100000, guid: ec9a60b28ddfad845988ea7dcb8529b1, type: 3}
--- !u!4 &2632250448028369766 stripped
Transform:
  m_CorrespondingSourceObject: {fileID: -4216859302048453862, guid: ec9a60b28ddfad845988ea7dcb8529b1,
    type: 3}
  m_PrefabInstance: {fileID: 7060822986076563580}
  m_PrefabAsset: {fileID: 0}
